Url do documento analisado,Tamanho arquivos analisados em Mb,"Quantidade de tokens processados,",Tempo_analise_similaridade pelo Cosseno,Cálculo de similaridade por medida do cosseno,Tempo_analise_similaridade por path similarity - synsets,Cálculo de similaridade por path similarity - synsets,Quantidade de tokens processados
https://edisciplinas.usp.br/pluginfile.php/256601/mod_resource/content/1/apostila_matlab_octave.pdf,39229,,0.40560078620910645,0.9944660978340218,32.652857303619385,45.7161379466989,1554.0
https://www.ft.unicamp.br/~magic/ST765/CG2009_Transformacoes.pdf,39229,,0.18720054626464844,1.1712854923676959,20.29563570022583,48.28924775971325,569.0
http://www.fec.unicamp.br/~nilson/apostilas/transformacao_de_coordenadas_e_anisotropia.pdf,39229,,0.34320068359375,4.85683329626641,441.3264935016632,56.0736129857367,2929.0
http://download.inep.gov.br/educacao_basica/prova_brasil_saeb/menu_do_professor/prova_matematica/matrizes_mat_3_serie_em/TemaI_Mat_3o_ano_EM_PROF.pdf,39229,,0.23000025749206543,4.633683146083831,114.221444606781,48.22714782212765,570.0
