Url do documento analisado,Tamanho arquivos analisados em Mb,Tempo_analise_similaridade pelo Cosseno,Cálculo de similaridade por medida do cosseno,Tempo_analise_similaridade por path similarity - synsets,Cálculo de similaridade por path similarity - synsets
http://www.anpad.org.br/rac/rac-guia-apa.pdf,67930,0.6660380363464355,33.14460726691029,76.50537610054016,61.96247509157007
http://wwwp.fc.unesp.br/~verinha/ADEFINICAODOPROBLEMA.pdf,67930,0.40302324295043945,15.587443658969397,94.68941593170166,56.74792186148709
